%YAML 1.1
%TAG !u! tag:unity3d.com,2011:
--- !u!74 &7400000
AnimationClip:
  m_ObjectHideFlags: 0
  m_CorrespondingSourceObject: {fileID: 0}
  m_PrefabInstance: {fileID: 0}
  m_PrefabAsset: {fileID: 0}
  m_Name: Menu
  serializedVersion: 6
  m_Legacy: 0
  m_Compressed: 0
  m_UseHighQualityCurve: 1
  m_RotationCurves: []
  m_CompressedRotationCurves: []
  m_EulerCurves: []
  m_PositionCurves: []
  m_ScaleCurves: []
  m_FloatCurves: []
  m_PPtrCurves:
  - curve:
    - time: 0
      value: {fileID: 21300000, guid: 4d4acd01af02a434682a17c0b18bae06, type: 3}
    - time: 0.1
      value: {fileID: 21300000, guid: 6799232af3ff87c4580e50be564ae1d9, type: 3}
    - time: 0.16666667
      value: {fileID: 21300000, guid: be71f3d092fae794c9dd0c9f41f53d1c, type: 3}
    - time: 0.26666668
      value: {fileID: 21300000, guid: 4cfbcd9b585c7834fa19b4b857b7bf4e, type: 3}
    - time: 0.38333333
      value: {fileID: 21300000, guid: 8f51543281b857c4183023e2f0f5de99, type: 3}
    - time: 0.46666667
      value: {fileID: 21300000, guid: 56c4d371ab4ace44f9b9836004e150f7, type: 3}
    - time: 0.55
      value: {fileID: 21300000, guid: dff9d9a7d541f194c8c468098864064b, type: 3}
    - time: 0.6333333
      value: {fileID: 21300000, guid: 249814487d527a3448418ab30a448f27, type: 3}
    - time: 0.8
      value: {fileID: 21300000, guid: 95b7cb8fb39ae2e489747cfce42c872b, type: 3}
    - time: 0.9166667
      value: {fileID: 21300000, guid: 2f7ccda93d9988d4f958c178a07896a6, type: 3}
    - time: 1
      value: {fileID: 21300000, guid: f834fe2332735484ab92f5617ef5ed3d, type: 3}
    - time: 1.1166667
      value: {fileID: 21300000, guid: 9ba6992757fac6a4fb66687e84794275, type: 3}
    - time: 1.2166667
      value: {fileID: 21300000, guid: 5a7088feaa9cd144c860c358f00b44b1, type: 3}
    - time: 1.2833333
      value: {fileID: 21300000, guid: ecf3e136e37c53c42abc00a8bc14e896, type: 3}
    - time: 1.3833333
      value: {fileID: 21300000, guid: 5b643f8ecce18fd4f974e6c1cacc6df6, type: 3}
    - time: 1.9333333
      value: {fileID: 21300000, guid: 5b643f8ecce18fd4f974e6c1cacc6df6, type: 3}
    attribute: m_Sprite
    path: 
    classID: 114
    script: {fileID: 11500000, guid: fe87c0e1cc204ed48ad3b37840f39efc, type: 3}
  m_SampleRate: 60
  m_WrapMode: 0
  m_Bounds:
    m_Center: {x: 0, y: 0, z: 0}
    m_Extent: {x: 0, y: 0, z: 0}
  m_ClipBindingConstant:
    genericBindings:
    - serializedVersion: 2
      path: 0
      attribute: 2015549526
      script: {fileID: 11500000, guid: fe87c0e1cc204ed48ad3b37840f39efc, type: 3}
      typeID: 114
      customType: 0
      isPPtrCurve: 1
    pptrCurveMapping:
    - {fileID: 21300000, guid: 4d4acd01af02a434682a17c0b18bae06, type: 3}
    - {fileID: 21300000, guid: 6799232af3ff87c4580e50be564ae1d9, type: 3}
    - {fileID: 21300000, guid: be71f3d092fae794c9dd0c9f41f53d1c, type: 3}
    - {fileID: 21300000, guid: 4cfbcd9b585c7834fa19b4b857b7bf4e, type: 3}
    - {fileID: 21300000, guid: 8f51543281b857c4183023e2f0f5de99, type: 3}
    - {fileID: 21300000, guid: 56c4d371ab4ace44f9b9836004e150f7, type: 3}
    - {fileID: 21300000, guid: dff9d9a7d541f194c8c468098864064b, type: 3}
    - {fileID: 21300000, guid: 249814487d527a3448418ab30a448f27, type: 3}
    - {fileID: 21300000, guid: 95b7cb8fb39ae2e489747cfce42c872b, type: 3}
    - {fileID: 21300000, guid: 2f7ccda93d9988d4f958c178a07896a6, type: 3}
    - {fileID: 21300000, guid: f834fe2332735484ab92f5617ef5ed3d, type: 3}
    - {fileID: 21300000, guid: 9ba6992757fac6a4fb66687e84794275, type: 3}
    - {fileID: 21300000, guid: 5a7088feaa9cd144c860c358f00b44b1, type: 3}
    - {fileID: 21300000, guid: ecf3e136e37c53c42abc00a8bc14e896, type: 3}
    - {fileID: 21300000, guid: 5b643f8ecce18fd4f974e6c1cacc6df6, type: 3}
    - {fileID: 21300000, guid: 5b643f8ecce18fd4f974e6c1cacc6df6, type: 3}
  m_AnimationClipSettings:
    serializedVersion: 2
    m_AdditiveReferencePoseClip: {fileID: 0}
    m_AdditiveReferencePoseTime: 0
    m_StartTime: 0
    m_StopTime: 1.9499999
    m_OrientationOffsetY: 0
    m_Level: 0
    m_CycleOffset: 0
    m_HasAdditiveReferencePose: 0
    m_LoopTime: 0
    m_LoopBlend: 0
    m_LoopBlendOrientation: 0
    m_LoopBlendPositionY: 0
    m_LoopBlendPositionXZ: 0
    m_KeepOriginalOrientation: 0
    m_KeepOriginalPositionY: 1
    m_KeepOriginalPositionXZ: 0
    m_HeightFromFeet: 0
    m_Mirror: 0
  m_EditorCurves: []
  m_EulerEditorCurves: []
  m_HasGenericRootTransform: 0
  m_HasMotionFloatCurves: 0
  m_Events: []
