%YAML 1.1
%TAG !u! tag:unity3d.com,2011:
--- !u!1001 &2763823339766590995
PrefabInstance:
  m_ObjectHideFlags: 0
  serializedVersion: 2
  m_Modification:
    m_TransformParent: {fileID: 0}
    m_Modifications:
    - target: {fileID: 1344545187, guid: 98d9533b3324d204aa9085053e6f8605, type: 3}
      propertyPath: m_LocalPosition.y
      value: 1.4139999
      objectReference: {fileID: 0}
    - target: {fileID: 1344545187, guid: 98d9533b3324d204aa9085053e6f8605, type: 3}
      propertyPath: m_LocalPosition.x
      value: -0.08999995
      objectReference: {fileID: 0}
    - target: {fileID: 1344545188, guid: 98d9533b3324d204aa9085053e6f8605, type: 3}
      propertyPath: m_Enabled
      value: 0
      objectReference: {fileID: 0}
    - target: {fileID: 596383196600570885, guid: 98d9533b3324d204aa9085053e6f8605,
        type: 3}
      propertyPath: m_Enabled
      value: 0
      objectReference: {fileID: 0}
    - target: {fileID: 1167296155710958535, guid: 98d9533b3324d204aa9085053e6f8605,
        type: 3}
      propertyPath: m_LocalPosition.y
      value: 0.007999897
      objectReference: {fileID: 0}
    - target: {fileID: 1167296155710958535, guid: 98d9533b3324d204aa9085053e6f8605,
        type: 3}
      propertyPath: m_LocalPosition.x
      value: -0.0109999515
      objectReference: {fileID: 0}
    - target: {fileID: 1167296155710958535, guid: 98d9533b3324d204aa9085053e6f8605,
        type: 3}
      propertyPath: m_LocalScale.x
      value: 2.1526
      objectReference: {fileID: 0}
    - target: {fileID: 1167296155710958535, guid: 98d9533b3324d204aa9085053e6f8605,
        type: 3}
      propertyPath: m_LocalScale.y
      value: 0.67283815
      objectReference: {fileID: 0}
    - target: {fileID: 1167296155710958535, guid: 98d9533b3324d204aa9085053e6f8605,
        type: 3}
      propertyPath: m_LocalScale.z
      value: 2.1526
      objectReference: {fileID: 0}
    - target: {fileID: 1547630584244163107, guid: 98d9533b3324d204aa9085053e6f8605,
        type: 3}
      propertyPath: m_WasSpriteAssigned
      value: 0
      objectReference: {fileID: 0}
    - target: {fileID: 1577610019518383162, guid: 98d9533b3324d204aa9085053e6f8605,
        type: 3}
      propertyPath: m_AnchoredPosition.y
      value: 1.481
      objectReference: {fileID: 0}
    - target: {fileID: 1577610019518383162, guid: 98d9533b3324d204aa9085053e6f8605,
        type: 3}
      propertyPath: m_AnchoredPosition.x
      value: -0.049999952
      objectReference: {fileID: 0}
    - target: {fileID: 1728327699155013946, guid: 98d9533b3324d204aa9085053e6f8605,
        type: 3}
      propertyPath: m_LocalPosition.x
      value: -0.027
      objectReference: {fileID: 0}
    - target: {fileID: 1728327699155013946, guid: 98d9533b3324d204aa9085053e6f8605,
        type: 3}
      propertyPath: m_LocalPosition.y
      value: 0.287
      objectReference: {fileID: 0}
    - target: {fileID: 1728327699155013946, guid: 98d9533b3324d204aa9085053e6f8605,
        type: 3}
      propertyPath: m_LocalScale.x
      value: 0.50786
      objectReference: {fileID: 0}
    - target: {fileID: 1728327699155013946, guid: 98d9533b3324d204aa9085053e6f8605,
        type: 3}
      propertyPath: m_LocalScale.y
      value: 0.50786
      objectReference: {fileID: 0}
    - target: {fileID: 1728327699155013946, guid: 98d9533b3324d204aa9085053e6f8605,
        type: 3}
      propertyPath: m_LocalScale.z
      value: 0.50786
      objectReference: {fileID: 0}
    - target: {fileID: 1992857179597556377, guid: 98d9533b3324d204aa9085053e6f8605,
        type: 3}
      propertyPath: m_Controller
      value: 
      objectReference: {fileID: 9100000, guid: 2ea4924fe78b402438173b54c1bf5530, type: 2}
    - target: {fileID: 2488390664800119993, guid: 98d9533b3324d204aa9085053e6f8605,
        type: 3}
      propertyPath: m_LocalPosition.y
      value: 0.348
      objectReference: {fileID: 0}
    - target: {fileID: 2488390664800119993, guid: 98d9533b3324d204aa9085053e6f8605,
        type: 3}
      propertyPath: m_LocalScale.x
      value: 0.573844
      objectReference: {fileID: 0}
    - target: {fileID: 2488390664800119993, guid: 98d9533b3324d204aa9085053e6f8605,
        type: 3}
      propertyPath: m_LocalScale.y
      value: 0.573844
      objectReference: {fileID: 0}
    - target: {fileID: 2488390664800119993, guid: 98d9533b3324d204aa9085053e6f8605,
        type: 3}
      propertyPath: m_LocalScale.z
      value: 0.573844
      objectReference: {fileID: 0}
    - target: {fileID: 2759922831648856126, guid: 98d9533b3324d204aa9085053e6f8605,
        type: 3}
      propertyPath: m_IsActive
      value: 1
      objectReference: {fileID: 0}
    - target: {fileID: 3247448682697434865, guid: 98d9533b3324d204aa9085053e6f8605,
        type: 3}
      propertyPath: m_Sprite
      value: 
      objectReference: {fileID: 21300000, guid: ff0063cb82aa403428a614d61d3883db,
        type: 3}
    - target: {fileID: 3247448682697434870, guid: 98d9533b3324d204aa9085053e6f8605,
        type: 3}
      propertyPath: m_LocalPosition.y
      value: 0.304
      objectReference: {fileID: 0}
    - target: {fileID: 3247448682697434870, guid: 98d9533b3324d204aa9085053e6f8605,
        type: 3}
      propertyPath: m_LocalPosition.x
      value: -0.05
      objectReference: {fileID: 0}
    - target: {fileID: 3247448683298872104, guid: 98d9533b3324d204aa9085053e6f8605,
        type: 3}
      propertyPath: m_Name
      value: PlantSprout Variant
      objectReference: {fileID: 0}
    - target: {fileID: 3247448683298872107, guid: 98d9533b3324d204aa9085053e6f8605,
        type: 3}
      propertyPath: m_Size.x
      value: 0.43
      objectReference: {fileID: 0}
    - target: {fileID: 3247448683298872107, guid: 98d9533b3324d204aa9085053e6f8605,
        type: 3}
      propertyPath: m_Size.y
      value: 0.56
      objectReference: {fileID: 0}
    - target: {fileID: 3247448683298872107, guid: 98d9533b3324d204aa9085053e6f8605,
        type: 3}
      propertyPath: m_Center.y
      value: 0.3
      objectReference: {fileID: 0}
    - target: {fileID: 3247448683298872116, guid: 98d9533b3324d204aa9085053e6f8605,
        type: 3}
      propertyPath: m_LocalPosition.x
      value: 2.434
      objectReference: {fileID: 0}
    - target: {fileID: 3247448683298872116, guid: 98d9533b3324d204aa9085053e6f8605,
        type: 3}
      propertyPath: m_LocalPosition.y
      value: -2.847
      objectReference: {fileID: 0}
    - target: {fileID: 3247448683298872116, guid: 98d9533b3324d204aa9085053e6f8605,
        type: 3}
      propertyPath: m_LocalPosition.z
      value: 0
      objectReference: {fileID: 0}
    - target: {fileID: 3247448683298872116, guid: 98d9533b3324d204aa9085053e6f8605,
        type: 3}
      propertyPath: m_LocalRotation.x
      value: 0
      objectReference: {fileID: 0}
    - target: {fileID: 3247448683298872116, guid: 98d9533b3324d204aa9085053e6f8605,
        type: 3}
      propertyPath: m_LocalRotation.y
      value: 0
      objectReference: {fileID: 0}
    - target: {fileID: 3247448683298872116, guid: 98d9533b3324d204aa9085053e6f8605,
        type: 3}
      propertyPath: m_LocalRotation.z
      value: 0
      objectReference: {fileID: 0}
    - target: {fileID: 3247448683298872116, guid: 98d9533b3324d204aa9085053e6f8605,
        type: 3}
      propertyPath: m_LocalRotation.w
      value: 1
      objectReference: {fileID: 0}
    - target: {fileID: 3247448683298872116, guid: 98d9533b3324d204aa9085053e6f8605,
        type: 3}
      propertyPath: m_RootOrder
      value: 0
      objectReference: {fileID: 0}
    - target: {fileID: 3247448683298872116, guid: 98d9533b3324d204aa9085053e6f8605,
        type: 3}
      propertyPath: m_LocalEulerAnglesHint.x
      value: 0
      objectReference: {fileID: 0}
    - target: {fileID: 3247448683298872116, guid: 98d9533b3324d204aa9085053e6f8605,
        type: 3}
      propertyPath: m_LocalEulerAnglesHint.y
      value: 0
      objectReference: {fileID: 0}
    - target: {fileID: 3247448683298872116, guid: 98d9533b3324d204aa9085053e6f8605,
        type: 3}
      propertyPath: m_LocalEulerAnglesHint.z
      value: 0
      objectReference: {fileID: 0}
    - target: {fileID: 3247448683957136639, guid: 98d9533b3324d204aa9085053e6f8605,
        type: 3}
      propertyPath: m_LocalPosition.x
      value: 0.0010000467
      objectReference: {fileID: 0}
    - target: {fileID: 3247448683957136639, guid: 98d9533b3324d204aa9085053e6f8605,
        type: 3}
      propertyPath: m_LocalPosition.y
      value: -0.0010001063
      objectReference: {fileID: 0}
    - target: {fileID: 4379158335025473674, guid: 98d9533b3324d204aa9085053e6f8605,
        type: 3}
      propertyPath: m_WasSpriteAssigned
      value: 0
      objectReference: {fileID: 0}
    - target: {fileID: 7762587226264661715, guid: 98d9533b3324d204aa9085053e6f8605,
        type: 3}
      propertyPath: m_Enabled
      value: 1
      objectReference: {fileID: 0}
    m_RemovedComponents: []
  m_SourcePrefab: {fileID: 100100000, guid: 98d9533b3324d204aa9085053e6f8605, type: 3}
