%YAML 1.1
%TAG !u! tag:unity3d.com,2011:
--- !u!114 &11400000
MonoBehaviour:
  m_ObjectHideFlags: 0
  m_CorrespondingSourceObject: {fileID: 0}
  m_PrefabInstance: {fileID: 0}
  m_PrefabAsset: {fileID: 0}
  m_GameObject: {fileID: 0}
  m_Enabled: 1
  m_EditorHideFlags: 0
  m_Script: {fileID: 11500000, guid: 49ec11c4a9a445d4cabfc72410b61015, type: 3}
  m_Name: PlantSpathiphyllum
  m_EditorClassIdentifier: 
  plantName: Spathiphyllum
  sprite: {fileID: 21300000, guid: b064b781b3195d540b42c3191f5ead6c, type: 3}
  dry: {fileID: 21300000, guid: 04186e7cc2b0c5046a8213796915e29e, type: 3}
  dead: {fileID: 21300000, guid: 8c6c4784697bbfd44a1bc03876a9f119, type: 3}
  dirtNeeded:
  - dirtType: 1
    quantity: 10
  - dirtType: 0
    quantity: 30
  - dirtType: 2
    quantity: 30
  - dirtType: 4
    quantity: 30
  waterNeeded: 2
  speedDrying: 2
  needSpray: 0
  lightNeeded: 0.4
  heatWeakness: 5
  coldWeakness: 2
